{
  "count": 182,
  "next": "https://lldev.thespacedevs.com/2.2.0/upcoming?offset=20&limit=20",
  "previous": null,
  "results": [
    {
      "slug": "long-march-7-tianzhou-3",
      "name": "Long March 7  | Tianzhou-3"
    }
  ]
}